(footprint "bottom" (version 20221018) (generator pcbnew)
  (layer "F.Cu")
  (attr board_only exclude_from_pos_files exclude_from_bom)
  (fp_text reference "G***" (at 0 0) (layer "F.SilkS") hide
      (effects (font (size 1.524 1.524) (thickness 0.3)))
    (tstamp 1f18c774-c1a6-4c59-b103-40f00d078b56)
  )
  (fp_text value "LOGO" (at 0.75 0) (layer "F.SilkS") hide
      (effects (font (size 1.524 1.524) (thickness 0.3)))
    (tstamp ee475694-80b2-435f-8300-8005ab8cde30)
  )
  (fp_poly
    (pts
      (xy 40.091326 -2.319683)
      (xy 39.57231 -2.319683)
      (xy 39.57231 -1.853628)
      (xy 40.091326 -1.853628)
      (xy 40.091326 -1.715929)
      (xy 38.968557 -1.715929)
      (xy 38.968557 -1.85323)
      (xy 39.209529 -1.856077)
      (xy 39.4505 -1.858924)
      (xy 39.453355 -2.089303)
      (xy 39.45621 -2.319683)
      (xy 38.968557 -2.319683)
      (xy 38.968557 -2.457381)
      (xy 40.091326 -2.457381)
    )

    (stroke (width 0) (type solid)) (fill solid) (layer "F.SilkS") (tstamp 032033ec-83ae-4471-8341-be9267aa67ca))
  (fp_poly
    (pts
      (xy 38.962642 -7.586638)
      (xy 38.990474 -7.57464)
      (xy 39.033448 -7.555411)
      (xy 39.089572 -7.529888)
      (xy 39.156851 -7.499003)
      (xy 39.233292 -7.463693)
      (xy 39.316901 -7.424891)
      (xy 39.405685 -7.383533)
      (xy 39.497649 -7.340554)
      (xy 39.5908 -7.296887)
      (xy 39.683144 -7.253469)
      (xy 39.772687 -7.211234)
      (xy 39.857437 -7.171116)
      (xy 39.935398 -7.13405)
      (xy 40.004578 -7.100972)
      (xy 40.062983 -7.072815)
      (xy 40.108618 -7.050516)
      (xy 40.139491 -7.035007)
      (xy 40.153607 -7.027225)
      (xy 40.154134 -7.026805)
      (xy 40.153532 -7.014745)
      (xy 40.145681 -6.991279)
      (xy 40.133715 -6.963461)
      (xy 40.120771 -6.938348)
      (xy 40.109983 -6.922996)
      (xy 40.107214 -6.921214)
      (xy 40.096021 -6.925196)
      (xy 40.067375 -6.937541)
      (xy 40.022941 -6.957479)
      (xy 39.96438 -6.984242)
      (xy 39.893357 -7.01706)
      (xy 39.811535 -7.055165)
      (xy 39.720577 -7.097788)
      (xy 39.622145 -7.144159)
      (xy 39.517903 -7.19351)
      (xy 39.503461 -7.200366)
      (xy 39.398737 -7.250109)
      (xy 39.299792 -7.297135)
      (xy 39.208266 -7.340661)
      (xy 39.1258 -7.379905)
      (xy 39.054036 -7.414087)
      (xy 38.994614 -7.442423)
      (xy 38.949177 -7.464133)
      (xy 38.919364 -7.478434)
      (xy 38.906817 -7.484546)
      (xy 38.90653 -7.484704)
      (xy 38.906981 -7.495748)
      (xy 38.914423 -7.518541)
      (xy 38.925877 -7.54614)
      (xy 38.938361 -7.571605)
      (xy 38.948895 -7.587992)
      (xy 38.951947 -7.590471)
    )

    (stroke (width 0) (type solid)) (fill solid) (layer "F.SilkS") (tstamp 2c95c8f2-b95c-49f8-aff5-dcc90041c245))
  (fp_poly
    (pts
      (xy 38.962751 -3.455737)
      (xy 38.990599 -3.443744)
      (xy 39.033589 -3.424519)
      (xy 39.089726 -3.398998)
      (xy 39.157018 -3.368115)
      (xy 39.233469 -3.332806)
      (xy 39.317085 -3.294005)
      (xy 39.405874 -3.252647)
      (xy 39.49784 -3.209667)
      (xy 39.590991 -3.166)
      (xy 39.683331 -3.122582)
      (xy 39.772867 -3.080346)
      (xy 39.857605 -3.040228)
      (xy 39.935552 -3.003163)
      (xy 40.004712 -2.970085)
      (xy 40.063092 -2.94193)
      (xy 40.108699 -2.919633)
      (xy 40.139537 -2.904128)
      (xy 40.153614 -2.89635)
      (xy 40.154134 -2.89593)
      (xy 40.153524 -2.88382)
      (xy 40.145664 -2.86031)
      (xy 40.133692 -2.832466)
      (xy 40.120745 -2.80735)
      (xy 40.109959 -2.792028)
      (xy 40.107214 -2.790271)
      (xy 40.096021 -2.794253)
      (xy 40.067375 -2.806598)
      (xy 40.022941 -2.826537)
      (xy 39.96438 -2.853299)
      (xy 39.893357 -2.886118)
      (xy 39.811535 -2.924223)
      (xy 39.720577 -2.966845)
      (xy 39.622145 -3.013217)
      (xy 39.517903 -3.062567)
      (xy 39.503461 -3.069423)
      (xy 39.398737 -3.119167)
      (xy 39.299792 -3.166193)
      (xy 39.208266 -3.209718)
      (xy 39.1258 -3.248963)
      (xy 39.054036 -3.283144)
      (xy 38.994614 -3.31148)
      (xy 38.949177 -3.33319)
      (xy 38.919364 -3.347492)
      (xy 38.906817 -3.353603)
      (xy 38.90653 -3.353762)
      (xy 38.90697 -3.364815)
      (xy 38.914418 -3.387611)
      (xy 38.92589 -3.415212)
      (xy 38.938402 -3.44068)
      (xy 38.94897 -3.457077)
      (xy 38.952039 -3.459564)
    )

    (stroke (width 0) (type solid)) (fill solid) (layer "F.SilkS") (tstamp 6eba9742-990f-4a1e-a09d-18aab7dde814))
  (fp_poly
    (pts
      (xy 40.091326 -9.988407)
      (xy 39.992623 -9.988407)
      (xy 39.902238 -9.993163)
      (xy 39.827444 -10.008432)
      (xy 39.764659 -10.035713)
      (xy 39.710305 -10.076503)
      (xy 39.666473 -10.12493)
      (xy 39.647576 -10.151654)
      (xy 39.621391 -10.192215)
      (xy 39.590855 -10.241896)
      (xy 39.558903 -10.295981)
      (xy 39.545773 -10.318865)
      (xy 39.505139 -10.389185)
      (xy 39.471985 -10.44331)
      (xy 39.444197 -10.483932)
      (xy 39.419666 -10.513745)
      (xy 39.396278 -10.535441)
      (xy 39.371922 -10.551715)
      (xy 39.357136 -10.559432)
      (xy 39.294887 -10.578599)
      (xy 39.231772 -10.576685)
      (xy 39.184649 -10.561385)
      (xy 39.137729 -10.529368)
      (xy 39.103624 -10.484343)
      (xy 39.082416 -10.430233)
      (xy 39.074182 -10.370957)
      (xy 39.079003 -10.310437)
      (xy 39.096958 -10.252594)
      (xy 39.128127 -10.201349)
      (xy 39.172589 -10.160623)
      (xy 39.176462 -10.158102)
      (xy 39.218151 -10.136986)
      (xy 39.262756 -10.122338)
      (xy 39.277625 -10.119557)
      (xy 39.305752 -10.114428)
      (xy 39.322261 -10.10533)
      (xy 39.329026 -10.087946)
      (xy 39.327919 -10.057959)
      (xy 39.321892 -10.017535)
      (xy 39.316512 -9.995202)
      (xy 39.306808 -9.982586)
      (xy 39.288811 -9.978862)
      (xy 39.258554 -9.983209)
      (xy 39.212177 -9.994774)
      (xy 39.141869 -10.022141)
      (xy 39.07819 -10.063175)
      (xy 39.027166 -10.113683)
      (xy 39.013098 -10.133312)
      (xy 38.977477 -10.205455)
      (xy 38.956261 -10.285287)
      (xy 38.949479 -10.368063)
      (xy 38.957161 -10.44904)
      (xy 38.979336 -10.523474)
      (xy 39.010297 -10.579019)
      (xy 39.059348 -10.635061)
      (xy 39.114509 -10.674045)
      (xy 39.179349 -10.69767)
      (xy 39.257438 -10.707637)
      (xy 39.281594 -10.708209)
      (xy 39.336861 -10.705872)
      (xy 39.385047 -10.696999)
      (xy 39.428271 -10.679768)
      (xy 39.468652 -10.652357)
      (xy 39.508308 -10.612944)
      (xy 39.549358 -10.559706)
      (xy 39.59392 -10.490822)
      (xy 39.644113 -10.40447)
      (xy 39.652761 -10.388995)
      (xy 39.684271 -10.333549)
      (xy 39.714457 -10.282563)
      (xy 39.740986 -10.239823)
      (xy 39.761523 -10.209114)
      (xy 39.771551 -10.196297)
      (xy 39.820931 -10.158429)
      (xy 39.879739 -10.13907)
      (xy 39.910919 -10.136697)
      (xy 39.953628 -10.136697)
      (xy 39.953628 -10.719266)
      (xy 40.091326 -10.719266)
    )

    (stroke (width 0) (type solid)) (fill solid) (layer "F.SilkS") (tstamp 9de5f830-da63-4e93-9755-96a7d1a2485f))
  (fp_poly
    (pts
      (xy 40.091326 -7.922935)
      (xy 39.992623 -7.922935)
      (xy 39.900196 -7.928133)
      (xy 39.823297 -7.94462)
      (xy 39.758747 -7.973738)
      (xy 39.703372 -8.016827)
      (xy 39.663944 -8.061732)
      (xy 39.646062 -8.087566)
      (xy 39.620762 -8.127302)
      (xy 39.590893 -8.176316)
      (xy 39.559306 -8.229981)
      (xy 39.545872 -8.253394)
      (xy 39.505202 -8.323698)
      (xy 39.472024 -8.377812)
      (xy 39.444228 -8.418427)
      (xy 39.419701 -8.448235)
      (xy 39.396333 -8.469926)
      (xy 39.372011 -8.486193)
      (xy 39.357136 -8.493961)
      (xy 39.294887 -8.513128)
      (xy 39.231772 -8.511214)
      (xy 39.184649 -8.495914)
      (xy 39.137729 -8.463896)
      (xy 39.103624 -8.418872)
      (xy 39.082416 -8.364762)
      (xy 39.074182 -8.305486)
      (xy 39.079003 -8.244966)
      (xy 39.096958 -8.187123)
      (xy 39.128127 -8.135878)
      (xy 39.172589 -8.095152)
      (xy 39.176462 -8.092631)
      (xy 39.218151 -8.071515)
      (xy 39.262756 -8.056867)
      (xy 39.277625 -8.054086)
      (xy 39.305752 -8.048957)
      (xy 39.322261 -8.039858)
      (xy 39.329026 -8.022475)
      (xy 39.327919 -7.992487)
      (xy 39.321892 -7.952064)
      (xy 39.316512 -7.929731)
      (xy 39.306808 -7.917114)
      (xy 39.288811 -7.913391)
      (xy 39.258554 -7.917738)
      (xy 39.212177 -7.929303)
      (xy 39.141869 -7.95667)
      (xy 39.07819 -7.997704)
      (xy 39.027166 -8.048212)
      (xy 39.013098 -8.067841)
      (xy 38.977477 -8.139984)
      (xy 38.956261 -8.219815)
      (xy 38.949479 -8.302592)
      (xy 38.957161 -8.383569)
      (xy 38.979336 -8.458003)
      (xy 39.010297 -8.513547)
      (xy 39.059348 -8.56959)
      (xy 39.114509 -8.608574)
      (xy 39.179349 -8.632199)
      (xy 39.257438 -8.642166)
      (xy 39.281594 -8.642737)
      (xy 39.336861 -8.640401)
      (xy 39.385047 -8.631528)
      (xy 39.428271 -8.614297)
      (xy 39.468652 -8.586886)
      (xy 39.508308 -8.547473)
      (xy 39.549358 -8.494235)
      (xy 39.59392 -8.425351)
      (xy 39.644113 -8.338999)
      (xy 39.652761 -8.323524)
      (xy 39.6942 -8.25013)
      (xy 39.728247 -8.193302)
      (xy 39.757137 -8.150735)
      (xy 39.783105 -8.120124)
      (xy 39.808385 -8.099164)
      (xy 39.835211 -8.085551)
      (xy 39.86582 -8.076979)
      (xy 39.896725 -8.071901)
      (xy 39.953628 -8.064179)
      (xy 39.953628 -8.653794)
      (xy 40.091326 -8.653794)
    )

    (stroke (width 0) (type solid)) (fill solid) (layer "F.SilkS") (tstamp 6bcec1a7-b9d2-4970-9e34-88b8059997e3))
  (fp_poly
    (pts
      (xy 40.091326 -5.808899)
      (xy 40.014533 -5.809083)
      (xy 39.941529 -5.813155)
      (xy 39.870723 -5.824172)
      (xy 39.807945 -5.840851)
      (xy 39.759027 -5.861912)
      (xy 39.750566 -5.867097)
      (xy 39.712154 -5.898761)
      (xy 39.671274 -5.945071)
      (xy 39.626786 -6.007565)
      (xy 39.577554 -6.087778)
      (xy 39.546395 -6.142994)
      (xy 39.495495 -6.230552)
      (xy 39.449745 -6.298642)
      (xy 39.408457 -6.34816)
      (xy 39.370945 -6.380003)
      (xy 39.35978 -6.386527)
      (xy 39.322652 -6.397716)
      (xy 39.274986 -6.401513)
      (xy 39.226119 -6.39786)
      (xy 39.18751 -6.387612)
      (xy 39.14181 -6.357782)
      (xy 39.107318 -6.313786)
      (xy 39.084709 -6.259836)
      (xy 39.074656 -6.200144)
      (xy 39.077831 -6.138923)
      (xy 39.094907 -6.080385)
      (xy 39.126559 -6.028743)
      (xy 39.12959 -6.025208)
      (xy 39.166823 -5.989717)
      (xy 39.208908 -5.965464)
      (xy 39.263259 -5.948402)
      (xy 39.275201 -5.945721)
      (xy 39.306789 -5.937838)
      (xy 39.322703 -5.929162)
      (xy 39.328201 -5.915656)
      (xy 39.328691 -5.904675)
      (xy 39.326482 -5.871629)
      (xy 39.322071 -5.842)
      (xy 39.31526 -5.819854)
      (xy 39.302008 -5.810783)
      (xy 39.277054 -5.809281)
      (xy 39.244695 -5.813218)
      (xy 39.204417 -5.822849)
      (xy 39.181909 -5.830077)
      (xy 39.109548 -5.864704)
      (xy 39.050854 -5.91268)
      (xy 39.00315 -5.976576)
      (xy 38.977327 -6.026622)
      (xy 38.965521 -6.057144)
      (xy 38.95822 -6.08928)
      (xy 38.954437 -6.129515)
      (xy 38.95318 -6.184334)
      (xy 38.953177 -6.184921)
      (xy 38.953626 -6.236927)
      (xy 38.956299 -6.274476)
      (xy 38.962302 -6.304264)
      (xy 38.972739 -6.33299)
      (xy 38.980418 -6.350015)
      (xy 39.025075 -6.422135)
      (xy 39.083998 -6.478666)
      (xy 39.134237 -6.509129)
      (xy 39.184721 -6.526038)
      (xy 39.245883 -6.534742)
      (xy 39.310264 -6.535208)
      (xy 39.370403 -6.527401)
      (xy 39.418843 -6.511287)
      (xy 39.420513 -6.510427)
      (xy 39.460897 -6.483203)
      (xy 39.502435 -6.442666)
      (xy 39.546473 -6.387117)
      (xy 39.594352 -6.314859)
      (xy 39.647417 -6.224194)
      (xy 39.648644 -6.221993)
      (xy 39.679321 -6.16771)
      (xy 39.70843 -6.117525)
      (xy 39.733589 -6.075454)
      (xy 39.752412 -6.04551)
      (xy 39.759746 -6.034939)
      (xy 39.802996 -5.995508)
      (xy 39.862145 -5.969752)
      (xy 39.905091 -5.960963)
      (xy 39.953628 -5.95431)
      (xy 39.953628 -6.539758)
      (xy 40.091326 -6.539758)
    )

    (stroke (width 0) (type solid)) (fill solid) (layer "F.SilkS") (tstamp cdd6174a-82a2-42a8-a9c2-2ef869679002))
  (fp_poly
    (pts
      (xy 39.881689 -11.70475)
      (xy 39.949155 -11.676462)
      (xy 40.002514 -11.638263)
      (xy 40.053069 -11.583571)
      (xy 40.088029 -11.522696)
      (xy 40.109254 -11.451386)
      (xy 40.118221 -11.373437)
      (xy 40.115396 -11.275608)
      (xy 40.096412 -11.188959)
      (xy 40.061745 -11.114741)
      (xy 40.011869 -11.054204)
      (xy 39.990096 -11.035859)
      (xy 39.949324 -11.009182)
      (xy 39.90284 -10.985732)
      (xy 39.854678 -10.966691)
      (xy 39.808869 -10.953243)
      (xy 39.769446 -10.94657)
      (xy 39.740439 -10.947855)
      (xy 39.725881 -10.95828)
      (xy 39.725859 -10.958338)
      (xy 39.720649 -10.97807)
      (xy 39.714685 -11.009098)
      (xy 39.712512 -11.022688)
      (xy 39.708877 -11.052407)
      (xy 39.711473 -11.067633)
      (xy 39.722961 -11.074753)
      (xy 39.735492 -11.077849)
      (xy 39.821406 -11.101672)
      (xy 39.888209 -11.132079)
      (xy 39.937343 -11.170525)
      (xy 39.970253 -11.218469)
      (xy 39.98838 -11.277366)
      (xy 39.993249 -11.338064)
      (xy 39.986648 -11.417184)
      (xy 39.966155 -11.480518)
      (xy 39.931606 -11.528417)
      (xy 39.889316 -11.558142)
      (xy 39.82945 -11.58063)
      (xy 39.770076 -11.58575)
      (xy 39.727846 -11.580458)
      (xy 39.668892 -11.562228)
      (xy 39.624 -11.5316)
      (xy 39.591957 -11.486897)
      (xy 39.57155 -11.426443)
      (xy 39.561701 -11.350748)
      (xy 39.556217 -11.262851)
      (xy 39.442689 -11.262851)
      (xy 39.442689 -11.302994)
      (xy 39.438744 -11.347658)
      (xy 39.42832 -11.396951)
      (xy 39.413532 -11.443656)
      (xy 39.396498 -11.480554)
      (xy 39.386558 -11.494469)
      (xy 39.341101 -11.529168)
      (xy 39.28731 -11.545793)
      (xy 39.228845 -11.543731)
      (xy 39.18217 -11.528673)
      (xy 39.136808 -11.496862)
      (xy 39.104831 -11.449568)
      (xy 39.087388 -11.3886)
      (xy 39.08594 -11.376908)
      (xy 39.087159 -11.304693)
      (xy 39.106146 -11.243168)
      (xy 39.142174 -11.193471)
      (xy 39.194518 -11.156738)
      (xy 39.237117 -11.140302)
      (xy 39.270406 -11.1296)
      (xy 39.28728 -11.120326)
      (xy 39.292 -11.109301)
      (xy 39.29072 -11.100309)
      (xy 39.285124 -11.074392)
      (xy 39.278726 -11.041443)
      (xy 39.278055 -11.037768)
      (xy 39.271591 -11.013942)
      (xy 39.260397 -11.001351)
      (xy 39.240654 -10.999376)
      (xy 39.20854 -11.007397)
      (xy 39.171601 -11.020511)
      (xy 39.098496 -11.058559)
      (xy 39.039269 -11.112111)
      (xy 38.995184 -11.17965)
      (xy 38.967508 -11.259661)
      (xy 38.965943 -11.267034)
      (xy 38.9577 -11.350424)
      (xy 38.965951 -11.430911)
      (xy 38.989331 -11.505252)
      (xy 39.026472 -11.570209)
      (xy 39.076008 -11.622538)
      (xy 39.129985 -11.656127)
      (xy 39.176772 -11.669981)
      (xy 39.233387 -11.676012)
      (xy 39.291608 -11.674244)
      (xy 39.343208 -11.664703)
      (xy 39.367321 -11.655385)
      (xy 39.403459 -11.631343)
      (xy 39.438583 -11.598812)
      (xy 39.466451 -11.56428)
      (xy 39.479666 -11.538548)
      (xy 39.484836 -11.528472)
      (xy 39.491928 -11.531628)
      (xy 39.50346 -11.550376)
      (xy 39.513808 -11.570598)
      (xy 39.552877 -11.626662)
      (xy 39.605604 -11.669902)
      (xy 39.668418 -11.699825)
      (xy 39.73775 -11.715937)
      (xy 39.81003 -11.717743)
    )

    (stroke (width 0) (type solid)) (fill solid) (layer "F.SilkS") (tstamp 6855db4f-1236-4893-810d-78768f01fc97))
  (fp_poly
    (pts
      (xy 39.870441 -1.438454)
      (xy 39.938634 -1.412453)
      (xy 39.999036 -1.372118)
      (xy 40.014411 -1.35786)
      (xy 40.060182 -1.299266)
      (xy 40.090975 -1.229121)
      (xy 40.107608 -1.145278)
      (xy 40.110528 -1.106403)
      (xy 40.107519 -1.001619)
      (xy 40.088318 -0.910454)
      (xy 40.052763 -0.832681)
      (xy 40.000694 -0.768072)
      (xy 39.931952 -0.7164)
      (xy 39.846376 -0.677438)
      (xy 39.797878 -0.662821)
      (xy 39.753445 -0.651735)
      (xy 39.725079 -0.647893)
      (xy 39.708279 -0.653465)
      (xy 39.698542 -0.670621)
      (xy 39.691368 -0.701532)
      (xy 39.688734 -0.715447)
      (xy 39.68267 -0.750799)
      (xy 39.67939 -0.776609)
      (xy 39.679591 -0.787228)
      (xy 39.691056 -0.790813)
      (xy 39.717596 -0.79797)
      (xy 39.753711 -0.80722)
      (xy 39.757673 -0.808212)
      (xy 39.836036 -0.83364)
      (xy 39.895698 -0.867112)
      (xy 39.938241 -0.910562)
      (xy 39.965248 -0.965925)
      (xy 39.978302 -1.035136)
      (xy 39.980108 -1.080117)
      (xy 39.979134 -1.12838)
      (xy 39.975315 -1.162518)
      (xy 39.967306 -1.189538)
      (xy 39.954032 -1.215973)
      (xy 39.917384 -1.263838)
      (xy 39.871624 -1.293342)
      (xy 39.814185 -1.305958)
      (xy 39.79604 -1.306662)
      (xy 39.747975 -1.303043)
      (xy 39.707338 -1.290012)
      (xy 39.672046 -1.265435)
      (xy 39.640014 -1.227176)
      (xy 39.609157 -1.1731)
      (xy 39.577391 -1.101074)
      (xy 39.565376 -1.070458)
      (xy 39.534304 -0.993663)
      (xy 39.502118 -0.921792)
      (xy 39.470736 -0.85871)
      (xy 39.442074 -0.808283)
      (xy 39.419198 -0.775723)
      (xy 39.392336 -0.750914)
      (xy 39.357216 -0.727071)
      (xy 39.343514 -0.719751)
      (xy 39.313415 -0.707186)
      (xy 39.28428 -0.700972)
      (xy 39.247866 -0.699929)
      (xy 39.216004 -0.701489)
      (xy 39.150993 -0.71139)
      (xy 39.097517 -0.733793)
      (xy 39.05014 -0.771719)
      (xy 39.014196 -0.813663)
      (xy 38.985954 -0.857586)
      (xy 38.96733 -0.905049)
      (xy 38.956879 -0.961481)
      (xy 38.953157 -1.032311)
      (xy 38.953091 -1.043327)
      (xy 38.953846 -1.092524)
      (xy 38.957363 -1.128563)
      (xy 38.965234 -1.159442)
      (xy 38.97905 -1.193156)
      (xy 38.985776 -1.207506)
      (xy 39.031456 -1.282562)
      (xy 39.088478 -1.341316)
      (xy 39.155273 -1.382475)
      (xy 39.223864 -1.403663)
      (xy 39.262032 -1.410532)
      (xy 39.275007 -1.344582)
      (xy 39.281396 -1.30279)
      (xy 39.279491 -1.277334)
      (xy 39.267902 -1.264521)
      (xy 39.245237 -1.260658)
      (xy 39.243379 -1.260629)
      (xy 39.214729 -1.252478)
      (xy 39.18019 -1.231726)
      (xy 39.145885 -1.20322)
      (xy 39.117936 -1.171809)
      (xy 39.105911 -1.151764)
      (xy 39.091024 -1.100715)
      (xy 39.085613 -1.040109)
      (xy 39.08984 -0.979419)
      (xy 39.102164 -0.932187)
      (xy 39.130334 -0.885812)
      (xy 39.168728 -0.855327)
      (xy 39.213272 -0.84099)
      (xy 39.259895 -0.843059)
      (xy 39.304523 -0.861792)
      (xy 39.343084 -0.897447)
      (xy 39.355684 -0.916141)
      (xy 39.369322 -0.942604)
      (xy 39.388287 -0.983709)
      (xy 39.410303 -1.034326)
      (xy 39.433093 -1.089324)
      (xy 39.438492 -1.102773)
      (xy 39.474352 -1.188767)
      (xy 39.506714 -1.257196)
      (xy 39.537296 -1.31103)
      (xy 39.567817 -1.353236)
      (xy 39.599995 -1.386782)
      (xy 39.605867 -1.391935)
      (xy 39.662172 -1.426862)
      (xy 39.727906 -1.446017)
      (xy 39.798764 -1.449762)
    )

    (stroke (width 0) (type solid)) (fill solid) (layer "F.SilkS") (tstamp 2c7fec14-993f-49ca-8fad-e6db7e146f65))
  (fp_poly
    (pts
      (xy 39.615493 -9.731041)
      (xy 39.705835 -9.721526)
      (xy 39.78537 -9.705758)
      (xy 39.810634 -9.698409)
      (xy 39.896066 -9.661636)
      (xy 39.970886 -9.611215)
      (xy 40.032337 -9.54974)
      (xy 40.077661 -9.479806)
      (xy 40.098106 -9.427922)
      (xy 40.109173 -9.366732)
      (xy 40.110715 -9.297375)
      (xy 40.103209 -9.228599)
      (xy 40.087135 -9.169154)
      (xy 40.083474 -9.160357)
      (xy 40.041125 -9.090194)
      (xy 39.981213 -9.027784)
      (xy 39.906667 -8.975521)
      (xy 39.820421 -8.935798)
      (xy 39.800042 -8.92894)
      (xy 39.748962 -8.9172)
      (xy 39.682736 -8.908287)
      (xy 39.607237 -8.9024)
      (xy 39.52834 -8.899738)
      (xy 39.451919 -8.900498)
      (xy 39.383848 -8.90488)
      (xy 39.330077 -8.913064)
      (xy 39.232964 -8.943386)
      (xy 39.147615 -8.986675)
      (xy 39.07555 -9.041191)
      (xy 39.01829 -9.105196)
      (xy 38.977355 -9.176952)
      (xy 38.954267 -9.254721)
      (xy 38.952166 -9.301032)
      (xy 39.085783 -9.301032)
      (xy 39.094646 -9.243512)
      (xy 39.107661 -9.206979)
      (xy 39.143017 -9.157327)
      (xy 39.195933 -9.115274)
      (xy 39.263871 -9.081725)
      (xy 39.344292 -9.057587)
      (xy 39.434657 -9.043767)
      (xy 39.532427 -9.04117)
      (xy 39.567014 -9.043013)
      (xy 39.603939 -9.045941)
      (xy 39.63123 -9.04851)
      (xy 39.643323 -9.050192)
      (xy 39.643453 -9.05026)
      (xy 39.638065 -9.058913)
      (xy 39.621707 -9.082419)
      (xy 39.595965 -9.118567)
      (xy 39.562424 -9.165146)
      (xy 39.522667 -9.219947)
      (xy 39.47828 -9.280757)
      (xy 39.475499 -9.284556)
      (xy 39.429913 -9.346834)
      (xy 39.387915 -9.404257)
      (xy 39.35129 -9.454379)
      (xy 39.321823 -9.494758)
      (xy 39.301298 -9.522947)
      (xy 39.291502 -9.536504)
      (xy 39.291485 -9.536528)
      (xy 39.282004 -9.547753)
      (xy 39.271007 -9.550389)
      (xy 39.251818 -9.544332)
      (xy 39.231589 -9.535594)
      (xy 39.18174 -9.505938)
      (xy 39.137462 -9.465819)
      (xy 39.105413 -9.42161)
      (xy 39.099446 -9.409146)
      (xy 39.087255 -9.35939)
      (xy 39.085783 -9.301032)
      (xy 38.952166 -9.301032)
      (xy 38.950545 -9.336765)
      (xy 38.95138 -9.345939)
      (xy 38.970458 -9.430692)
      (xy 39.008317 -9.507733)
      (xy 39.063536 -9.575733)
      (xy 39.066123 -9.577828)
      (xy 39.407946 -9.577828)
      (xy 39.4095 -9.572833)
      (xy 39.417947 -9.56041)
      (xy 39.437181 -9.533223)
      (xy 39.46551 -9.493629)
      (xy 39.501241 -9.443983)
      (xy 39.542683 -9.386643)
      (xy 39.588144 -9.323964)
      (xy 39.593378 -9.316761)
      (xy 39.646092 -9.24412)
      (xy 39.688001 -9.186975)
      (xy 39.72106 -9.143914)
      (xy 39.747224 -9.113526)
      (xy 39.768448 -9.094397)
      (xy 39.786688 -9.085115)
      (xy 39.8039 -9.084268)
      (xy 39.822039 -9.090442)
      (xy 39.843061 -9.102227)
      (xy 39.868563 -9.117991)
      (xy 39.924062 -9.162697)
      (xy 39.961931 -9.216972)
      (xy 39.981291 -9.278062)
      (xy 39.981257 -9.343215)
      (xy 39.961556 -9.408361)
      (xy 39.933152 -9.456803)
      (xy 39.895107 -9.4954)
      (xy 39.843351 -9.527488)
      (xy 39.786658 -9.551719)
      (xy 39.754482 -9.5627)
      (xy 39.722984 -9.570583)
      (xy 39.687123 -9.576067)
      (xy 39.641862 -9.579852)
      (xy 39.582161 -9.582636)
      (xy 39.55779 -9.583475)
      (xy 39.496784 -9.585235)
      (xy 39.454116 -9.585752)
      (xy 39.426967 -9.584825)
      (xy 39.412517 -9.582251)
      (xy 39.407946 -9.577828)
      (xy 39.066123 -9.577828)
      (xy 39.134693 -9.633359)
      (xy 39.220369 -9.679281)
      (xy 39.319143 -9.712166)
      (xy 39.349415 -9.71895)
      (xy 39.430304 -9.730063)
      (xy 39.521323 -9.73399)
    )

    (stroke (width 0) (type solid)) (fill solid) (layer "F.SilkS") (tstamp 47784b0d-e22d-4ac8-88d5-06ecb5905acd))
  (fp_poly
    (pts
      (xy 39.618878 -5.600123)
      (xy 39.709362 -5.590089)
      (xy 39.788723 -5.573547)
      (xy 39.811553 -5.56663)
      (xy 39.898505 -5.528592)
      (xy 39.973811 -5.477423)
      (xy 40.034989 -5.41546)
      (xy 40.079556 -5.34504)
      (xy 40.098106 -5.29698)
      (xy 40.109173 -5.23579)
      (xy 40.110715 -5.166432)
      (xy 40.103209 -5.097656)
      (xy 40.087135 -5.038212)
      (xy 40.083474 -5.029415)
      (xy 40.041125 -4.959252)
      (xy 39.981213 -4.896842)
      (xy 39.906667 -4.844579)
      (xy 39.820421 -4.804856)
      (xy 39.800042 -4.797997)
      (xy 39.748962 -4.786257)
      (xy 39.682736 -4.777345)
      (xy 39.607237 -4.771458)
      (xy 39.52834 -4.768796)
      (xy 39.451919 -4.769556)
      (xy 39.383848 -4.773937)
      (xy 39.330077 -4.782121)
      (xy 39.232964 -4.812444)
      (xy 39.147615 -4.855732)
      (xy 39.07555 -4.910248)
      (xy 39.01829 -4.974253)
      (xy 38.977355 -5.04601)
      (xy 38.954267 -5.123779)
      (xy 38.952898 -5.153963)
      (xy 39.085996 -5.153963)
      (xy 39.090746 -5.11947)
      (xy 39.102608 -5.086714)
      (xy 39.106492 -5.078452)
      (xy 39.142586 -5.02738)
      (xy 39.19619 -4.984367)
      (xy 39.264884 -4.950288)
      (xy 39.346249 -4.926017)
      (xy 39.437865 -4.912427)
      (xy 39.537315 -4.910393)
      (xy 39.567014 -4.91207)
      (xy 39.603889 -4.914961)
      (xy 39.631082 -4.917435)
      (xy 39.643056 -4.918985)
      (xy 39.64318 -4.919044)
      (xy 39.637726 -4.927649)
      (xy 39.621319 -4.95124)
      (xy 39.595483 -4.987684)
      (xy 39.561739 -5.034844)
      (xy 39.521611 -5.090589)
      (xy 39.476622 -5.152781)
      (xy 39.463113 -5.171402)
      (xy 39.409501 -5.245369)
      (xy 39.366767 -5.303809)
      (xy 39.333059 -5.34813)
      (xy 39.306525 -5.379736)
      (xy 39.28531 -5.400034)
      (xy 39.267563 -5.410429)
      (xy 39.25143 -5.412327)
      (xy 39.235059 -5.407134)
      (xy 39.216596 -5.396255)
      (xy 39.194189 -5.381097)
      (xy 39.19022 -5.378439)
      (xy 39.140668 -5.338887)
      (xy 39.108947 -5.295788)
      (xy 39.091807 -5.243522)
      (xy 39.086812 -5.199724)
      (xy 39.085996 -5.153963)
      (xy 38.952898 -5.153963)
      (xy 38.950545 -5.205823)
      (xy 38.95138 -5.214997)
      (xy 38.970458 -5.299749)
      (xy 39.008317 -5.376791)
      (xy 39.063536 -5.44479)
      (xy 39.066123 -5.446885)
      (xy 39.407946 -5.446885)
      (xy 39.4095 -5.441891)
      (xy 39.417947 -5.429467)
      (xy 39.437181 -5.40228)
      (xy 39.46551 -5.362686)
      (xy 39.501241 -5.313041)
      (xy 39.542683 -5.255701)
      (xy 39.588144 -5.193021)
      (xy 39.593378 -5.185819)
      (xy 39.646092 -5.113177)
      (xy 39.688001 -5.056032)
      (xy 39.72106 -5.012972)
      (xy 39.747224 -4.982583)
      (xy 39.768448 -4.963455)
      (xy 39.786688 -4.954173)
      (xy 39.8039 -4.953325)
      (xy 39.822039 -4.9595)
      (xy 39.843061 -4.971284)
      (xy 39.868563 -4.987048)
      (xy 39.924062 -5.031754)
      (xy 39.961931 -5.086029)
      (xy 39.981291 -5.14712)
      (xy 39.981257 -5.212272)
      (xy 39.961556 -5.277419)
      (xy 39.933152 -5.325861)
      (xy 39.895107 -5.364458)
      (xy 39.843351 -5.396545)
      (xy 39.786658 -5.420776)
      (xy 39.754482 -5.431757)
      (xy 39.722984 -5.43964)
      (xy 39.687123 -5.445125)
      (xy 39.641862 -5.448909)
      (xy 39.582161 -5.451694)
      (xy 39.55779 -5.452533)
      (xy 39.496784 -5.454292)
      (xy 39.454116 -5.45481)
      (xy 39.426967 -5.453883)
      (xy 39.412517 -5.451309)
      (xy 39.407946 -5.446885)
      (xy 39.066123 -5.446885)
      (xy 39.134693 -5.502417)
      (xy 39.220369 -5.548338)
      (xy 39.319143 -5.581224)
      (xy 39.349415 -5.588008)
      (xy 39.432031 -5.599401)
      (xy 39.524143 -5.603333)
    )

    (stroke (width 0) (type solid)) (fill solid) (layer "F.SilkS") (tstamp fc6b3bbe-b9b6-437a-9c2b-5e20889c99bf))
  (fp_poly
    (pts
      (xy 39.666798 -4.56226)
      (xy 39.776367 -4.543717)
      (xy 39.870062 -4.512481)
      (xy 39.948703 -4.468163)
      (xy 40.01311 -4.410372)
      (xy 40.064105 -4.338722)
      (xy 40.077044 -4.314195)
      (xy 40.091277 -4.283014)
      (xy 40.100199 -4.255437)
      (xy 40.105016 -4.224757)
      (xy 40.106937 -4.184272)
      (xy 40.107206 -4.14683)
      (xy 40.106631 -4.096106)
      (xy 40.10412 -4.060113)
      (xy 40.098484 -4.032412)
      (xy 40.088532 -4.006562)
      (xy 40.077037 -3.983599)
      (xy 40.02506 -3.907176)
      (xy 39.956875 -3.843666)
      (xy 39.873715 -3.793963)
      (xy 39.776818 -3.758962)
      (xy 39.761102 -3.755018)
      (xy 39.711758 -3.746365)
      (xy 39.648322 -3.739609)
      (xy 39.577762 -3.735071)
      (xy 39.50705 -3.73307)
      (xy 39.443154 -3.733927)
      (xy 39.393044 -3.737962)
      (xy 39.392244 -3.738075)
      (xy 39.280797 -3.762469)
      (xy 39.183366 -3.801474)
      (xy 39.100679 -3.854621)
      (xy 39.033462 -3.921442)
      (xy 38.982441 -4.001469)
      (xy 38.982048 -4.002268)
      (xy 38.966832 -4.036442)
      (xy 38.957979 -4.067319)
      (xy 38.953919 -4.103017)
      (xy 38.953085 -4.151653)
      (xy 38.953087 -4.152126)
      (xy 39.085071 -4.152126)
      (xy 39.094092 -4.081311)
      (xy 39.121241 -4.02102)
      (xy 39.166649 -3.971125)
      (xy 39.230446 -3.931496)
      (xy 39.312763 -3.902005)
      (xy 39.345476 -3.89416)
      (xy 39.380921 -3.888394)
      (xy 39.426245 -3.883615)
      (xy 39.476673 -3.880005)
      (xy 39.527429 -3.877745)
      (xy 39.573735 -3.877017)
      (xy 39.610816 -3.878003)
      (xy 39.633896 -3.880885)
      (xy 39.638601 -3.882999)
      (xy 39.633837 -3.892285)
      (xy 39.618449 -3.91605)
      (xy 39.594309 -3.951663)
      (xy 39.563287 -3.996496)
      (xy 39.527255 -4.047918)
      (xy 39.488084 -4.103301)
      (xy 39.447645 -4.160015)
      (xy 39.407809 -4.215432)
      (xy 39.370447 -4.266921)
      (xy 39.337431 -4.311853)
      (xy 39.310632 -4.3476)
      (xy 39.29192 -4.371532)
      (xy 39.286082 -4.378353)
      (xy 39.26946 -4.382114)
      (xy 39.241541 -4.374982)
      (xy 39.207731 -4.359094)
      (xy 39.173437 -4.336587)
      (xy 39.166568 -4.331127)
      (xy 39.12147 -4.283024)
      (xy 39.094803 -4.226961)
      (xy 39.085154 -4.159839)
      (xy 39.085071 -4.152126)
      (xy 38.953087 -4.152126)
      (xy 38.959212 -4.229111)
      (xy 38.978394 -4.294571)
      (xy 39.013024 -4.353794)
      (xy 39.065493 -4.412069)
      (xy 39.067256 -4.413729)
      (xy 39.419593 -4.413729)
      (xy 39.422746 -4.402065)
      (xy 39.433078 -4.382207)
      (xy 39.451629 -4.352521)
      (xy 39.479439 -4.311372)
      (xy 39.517548 -4.257125)
      (xy 39.566996 -4.188145)
      (xy 39.586756 -4.160796)
      (xy 39.639725 -4.087518)
      (xy 39.681864 -4.029704)
      (xy 39.714987 -3.985826)
      (xy 39.74091 -3.954352)
      (xy 39.761446 -3.933751)
      (xy 39.77841 -3.922494)
      (xy 39.793619 -3.919048)
      (xy 39.808886 -3.921884)
      (xy 39.826026 -3.929471)
      (xy 39.846855 -3.940279)
      (xy 39.847706 -3.940714)
      (xy 39.907069 -3.981028)
      (xy 39.94941 -4.03072)
      (xy 39.974905 -4.086795)
      (xy 39.983728 -4.146257)
      (xy 39.976052 -4.206111)
      (xy 39.952053 -4.263361)
      (xy 39.911904 -4.315013)
      (xy 39.855781 -4.358069)
      (xy 39.822433 -4.375152)
      (xy 39.777234 -4.39093)
      (xy 39.720314 -4.404619)
      (xy 39.656671 -4.415672)
      (xy 39.591301 -4.423545)
      (xy 39.529201 -4.427691)
      (xy 39.475368 -4.427564)
      (xy 39.434799 -4.422619)
      (xy 39.422577 -4.418834)
      (xy 39.419593 -4.413729)
      (xy 39.067256 -4.413729)
      (xy 39.074423 -4.420475)
      (xy 39.139832 -4.473142)
      (xy 39.210047 -4.513141)
      (xy 39.288366 -4.541519)
      (xy 39.378089 -4.559323)
      (xy 39.482514 -4.567602)
      (xy 39.540534 -4.568498)
    )

    (stroke (width 0) (type solid)) (fill solid) (layer "F.SilkS") (tstamp 4f75b1f1-3271-4c74-a9a2-eb16ab190408))
)
