(footprint "3225" (version 20221018) (generator pcbnew)
  (layer "F.Cu")
  (tags "SMD SMT ")
  (attr smd)
  (fp_text reference "REF**" (at -0.635 -2.413) (layer "F.SilkS") hide
      (effects (font (size 1 0.67) (thickness 0.15)))
    (tstamp 208a5e7c-51a0-46a4-a0c1-145b74906db9)
  )
  (fp_text value "Val**" (at 0 2.413) (layer "F.Fab") hide
      (effects (font (size 1 0.67) (thickness 0.15)))
    (tstamp e3c0d5f8-b207-4845-b821-5c4880ec327b)
  )
  (fp_text user "${REFERENCE}" (at 0 0) (layer "F.Fab")
      (effects (font (size 1 0.67) (thickness 0.15)))
    (tstamp 413c156d-88ea-483b-bd17-9bdf12faf532)
  )
  (fp_circle (center -2.2352 1.778) (end -2.1082 1.778)
    (stroke (width 0.254) (type solid)) (fill none) (layer "F.SilkS") (tstamp 6a041d6a-353d-4b98-ba5e-6ba392b4d88d))
  (fp_line (start -2.1 -1.7) (end -2.1 1.7)
    (stroke (width 0.1) (type solid)) (layer "F.CrtYd") (tstamp 45ca2936-b4ac-4023-adf8-9d3deca31788))
  (fp_line (start -2.1 1.7) (end 2.1 1.7)
    (stroke (width 0.1) (type solid)) (layer "F.CrtYd") (tstamp db9e7380-069f-4d9a-b5ee-9837257f0f90))
  (fp_line (start 2.1 -1.7) (end -2.1 -1.7)
    (stroke (width 0.1) (type solid)) (layer "F.CrtYd") (tstamp 2b1ef5c8-d3cc-49e5-bbf4-274af6ab38ae))
  (fp_line (start 2.1 1.7) (end 2.1 -1.7)
    (stroke (width 0.1) (type solid)) (layer "F.CrtYd") (tstamp ea6fd50d-309c-4d9c-b57d-2234679f0356))
  (fp_line (start -1.143 1.524) (end -1.905 0.762)
    (stroke (width 0.2) (type solid)) (layer "F.Fab") (tstamp ef29b44b-25ed-4979-9151-24abb3927b34))
  (fp_rect (start -1.905 -1.524) (end 1.905 1.524)
    (stroke (width 0.2) (type solid)) (fill none) (layer "F.Fab") (tstamp 9295effa-2422-4f6c-a51b-f9a28f55b194))
  (pad "1" smd roundrect (at -1.1 0.85) (size 1.4 1.2) (layers "F.Cu" "F.Paste" "F.Mask") (roundrect_rratio 0.25) (tstamp 914f86a4-29aa-48d2-bf24-2bb4aaf97c30))
  (pad "2" smd roundrect (at 1.1 0.85) (size 1.4 1.2) (layers "F.Cu" "F.Paste" "F.Mask") (roundrect_rratio 0.25) (tstamp 9574f9f1-9803-4e8c-a087-e40b7bb4b85a))
  (pad "3" smd roundrect (at 1.1 -0.85) (size 1.4 1.2) (layers "F.Cu" "F.Paste" "F.Mask") (roundrect_rratio 0.25) (tstamp 53be3234-a1ce-44aa-a22e-88f87f57aeb5))
  (pad "4" smd roundrect (at -1.1 -0.85) (size 1.4 1.2) (layers "F.Cu" "F.Paste" "F.Mask") (roundrect_rratio 0.25) (tstamp 8aab68a0-7cf9-499a-92b2-e9f7e36e6857))
  (model "${KIPRJMOD}/lib/step/3225.step"
    (offset (xyz 1.6 1.25 0))
    (scale (xyz 1 1 1))
    (rotate (xyz 0 0 180))
  )
)
