(footprint "C_0402" (version 20221018) (generator pcbnew)
  (layer "F.Cu")
  (attr smd)
  (fp_text reference "REF**" (at 0 -1.143) (layer "F.SilkS") hide
      (effects (font (size 1 0.67) (thickness 0.15)))
    (tstamp 3f001d39-98c9-450a-a6f0-b7475527fbd7)
  )
  (fp_text value "Val**" (at 0 1.143) (layer "F.Fab") hide
      (effects (font (size 1 0.67) (thickness 0.15)))
    (tstamp 7ef18d46-39df-486f-9543-b00228cf866a)
  )
  (fp_text user "${REFERENCE}" (at -0.000608 0.011757) (layer "F.Fab")
      (effects (font (size 0.25 0.1675) (thickness 0.0335)))
    (tstamp 08062a74-fcc4-43d7-9db6-d085cba6b52e)
  )
  (fp_line (start -0.91 -0.46) (end 0.91 -0.46)
    (stroke (width 0.1) (type solid)) (layer "F.CrtYd") (tstamp 6aa26098-9339-4279-9a36-893fdd4c6950))
  (fp_line (start -0.91 0.46) (end -0.91 -0.46)
    (stroke (width 0.1) (type solid)) (layer "F.CrtYd") (tstamp 0f646a94-faea-4a50-8b80-909d26d6d7a0))
  (fp_line (start 0.91 -0.46) (end 0.91 0.46)
    (stroke (width 0.1) (type solid)) (layer "F.CrtYd") (tstamp 40007d5f-c471-4d2b-87f0-dfa1629069fb))
  (fp_line (start 0.91 0.46) (end -0.91 0.46)
    (stroke (width 0.1) (type solid)) (layer "F.CrtYd") (tstamp 6897dba4-f95f-426a-ae14-d4aed1cd887f))
  (fp_line (start -0.5 -0.254) (end 0.5 -0.254)
    (stroke (width 0.2) (type solid)) (layer "F.Fab") (tstamp 3b194c04-55c2-4668-b84d-8f5aacd704a2))
  (fp_line (start -0.5 0.25) (end -0.5 -0.25)
    (stroke (width 0.2) (type solid)) (layer "F.Fab") (tstamp fe53c845-ac3c-48e4-9f37-36da777bc994))
  (fp_line (start 0.5 -0.25) (end 0.5 0.25)
    (stroke (width 0.2) (type solid)) (layer "F.Fab") (tstamp 3c7e7f28-d67d-4e18-8c13-2a82b2c60f01))
  (fp_line (start 0.5 0.25) (end -0.5 0.25)
    (stroke (width 0.2) (type solid)) (layer "F.Fab") (tstamp 8a7cad66-4840-4328-b7bf-cbbc635c7362))
  (pad "1" smd roundrect (at -0.48 0) (size 0.56 0.62) (layers "F.Cu" "F.Paste" "F.Mask") (roundrect_rratio 0.25) (tstamp f0d6bdbe-8dea-4984-9c52-f76168ceed26))
  (pad "2" smd roundrect (at 0.48 0) (size 0.56 0.62) (layers "F.Cu" "F.Paste" "F.Mask") (roundrect_rratio 0.25) (tstamp 07bccb1b-781c-4561-a379-63c349828818))
  (model "${KIPRJMOD}/lib/step/C_0402.STEP"
    (offset (xyz 0 0 0))
    (scale (xyz 1 1 1))
    (rotate (xyz 0 0 0))
  )
)
