(footprint "FID_Round_1mm_2mm" (version 20221018) (generator pcbnew)
  (layer "F.Cu")
  (descr "Fiducial round 1mm copper / 2mm diameter")
  (tags "Fiducial")
  (attr exclude_from_pos_files exclude_from_bom)
  (fp_text reference "REF**" (at 0 -2.413) (layer "F.SilkS") hide
      (effects (font (size 1 0.67) (thickness 0.15)))
    (tstamp ed08342a-eaee-43e9-b96e-1dd00b47763e)
  )
  (fp_text value "Val**" (at 0 2.413) (layer "F.Fab") hide
      (effects (font (size 1 0.67) (thickness 0.15)))
    (tstamp a41410ba-6764-40d3-8271-3889cd1f68dc)
  )
  (fp_text user "${REFERENCE}" (at 0 0) (layer "F.Fab")
      (effects (font (size 0.5 0.335) (thickness 0.075)))
    (tstamp ecb9d95d-c3e5-4a80-b7be-d742b8cad331)
  )
  (fp_rect (start -1.0668 -1.0668) (end 1.0668 1.0668)
    (stroke (width 0.1) (type solid)) (fill none) (layer "F.CrtYd") (tstamp 1764b7e5-9567-49f5-b7a8-fe0af2550bed))
  (fp_circle (center 0 0) (end 1 0)
    (stroke (width 0.2) (type solid)) (fill none) (layer "F.Fab") (tstamp ad07c85e-a7ab-45a4-9d3a-03b89f3b47b3))
  (pad "1" smd circle (at 0 0) (size 1 1) (layers "F.Cu" "F.Mask")
    (solder_mask_margin 0.5) (tstamp bab732e9-e79a-410d-8a2b-e7d9e8d299bb))
)
